{
    "v": "5.6.5",
    "fr": 25,
    "ip": 0,
    "op": 225,
    "w": 1200,
    "h": 800,
    "nm": "Primary Logo animation",
    "ddd": 0,
    "assets": [
        {
            "id": "image_0",
            "w": 842,
            "h": 596,
            "u": "",
            "p": "logo.png",
            "e": 0
        }
    ],
    "layers": [
        {
            "ddd": 0,
            "ind": 1,
            "ty": 2,
            "nm": "griup",
            "refId": "image_0",
            "sr": 1,
            "ks": {
                "o": {
                    "a": 1,
                    "k": [
                        {
                            "i": {
                                "x": [
                                    0.667
                                ],
                                "y": [
                                    1
                                ]
                            },
                            "o": {
                                "x": [
                                    0.333
                                ],
                                "y": [
                                    0
                                ]
                            },
                            "t": 29,
                            "s": [
                                0
                            ]
                        },
                        {
                            "t": 38,
                            "s": [
                                100
                            ]
                        }
                    ],
                    "ix": 11
                },
                "r": {
                    "a": 0,
                    "k": 0,
                    "ix": 10
                },
                "p": {
                    "a": 1,
                    "k": [
                        {
                            "i": {
                                "x": 0.667,
                                "y": 1
                            },
                            "o": {
                                "x": 0.333,
                                "y": 0
                            },
                            "t": 29,
                            "s": [
                                427.5,
                                577,
                                0
                            ],
                            "to": [
                                18.833,
                                -4.333,
                                0
                            ],
                            "ti": [
                                -18.833,
                                4.333,
                                0
                            ]
                        },
                        {
                            "t": 38,
                            "s": [
                                540.5,
                                551,
                                0
                            ]
                        }
                    ],
                    "ix": 2
                },
                "a": {
                    "a": 0,
                    "k": [
                        361.5,
                        449,
                        0
                    ],
                    "ix": 1
                },
                "s": {
                    "a": 0,
                    "k": [
                        100,
                        100,
                        100
                    ],
                    "ix": 6
                }
            },
            "ao": 0,
            "hasMask": true,
            "masksProperties": [
                {
                    "inv": false,
                    "mode": "a",
                    "pt": {
                        "a": 0,
                        "k": {
                            "i": [
                                [
                                    0,
                                    0
                                ],
                                [
                                    0,
                                    0
                                ],
                                [
                                    0,
                                    0
                                ],
                                [
                                    0,
                                    0
                                ]
                            ],
                            "o": [
                                [
                                    0,
                                    0
                                ],
                                [
                                    0,
                                    0
                                ],
                                [
                                    0,
                                    0
                                ],
                                [
                                    0,
                                    0
                                ]
                            ],
                            "v": [
                                [
                                    525,
                                    378
                                ],
                                [
                                    200,
                                    435
                                ],
                                [
                                    198,
                                    520
                                ],
                                [
                                    525,
                                    457
                                ]
                            ],
                            "c": true
                        },
                        "ix": 1
                    },
                    "o": {
                        "a": 0,
                        "k": 100,
                        "ix": 3
                    },
                    "x": {
                        "a": 0,
                        "k": 0,
                        "ix": 4
                    },
                    "nm": "Mask 1"
                }
            ],
            "ip": 19,
            "op": 244,
            "st": 19,
            "bm": 0
        },
        {
            "ddd": 0,
            "ind": 2,
            "ty": 2,
            "nm": "marketing",
            "refId": "image_0",
            "sr": 1,
            "ks": {
                "o": {
                    "a": 1,
                    "k": [
                        {
                            "i": {
                                "x": [
                                    0.667
                                ],
                                "y": [
                                    1
                                ]
                            },
                            "o": {
                                "x": [
                                    0.333
                                ],
                                "y": [
                                    0
                                ]
                            },
                            "t": 23,
                            "s": [
                                0
                            ]
                        },
                        {
                            "t": 33,
                            "s": [
                                100
                            ]
                        }
                    ],
                    "ix": 11
                },
                "r": {
                    "a": 0,
                    "k": 0,
                    "ix": 10
                },
                "p": {
                    "a": 1,
                    "k": [
                        {
                            "i": {
                                "x": 0.667,
                                "y": 1
                            },
                            "o": {
                                "x": 0.333,
                                "y": 0
                            },
                            "t": 23,
                            "s": [
                                536.5,
                                462.5,
                                0
                            ],
                            "to": [
                                18.833,
                                -4.333,
                                0
                            ],
                            "ti": [
                                -18.833,
                                4.333,
                                0
                            ]
                        },
                        {
                            "t": 33,
                            "s": [
                                649.5,
                                436.5,
                                0
                            ]
                        }
                    ],
                    "ix": 2
                },
                "a": {
                    "a": 0,
                    "k": [
                        470.5,
                        334.5,
                        0
                    ],
                    "ix": 1
                },
                "s": {
                    "a": 0,
                    "k": [
                        100,
                        100,
                        100
                    ],
                    "ix": 6
                }
            },
            "ao": 0,
            "hasMask": true,
            "masksProperties": [
                {
                    "inv": false,
                    "mode": "a",
                    "pt": {
                        "a": 0,
                        "k": {
                            "i": [
                                [
                                    0,
                                    0
                                ],
                                [
                                    0,
                                    0
                                ],
                                [
                                    0,
                                    0
                                ],
                                [
                                    0,
                                    0
                                ]
                            ],
                            "o": [
                                [
                                    0,
                                    0
                                ],
                                [
                                    0,
                                    0
                                ],
                                [
                                    0,
                                    0
                                ],
                                [
                                    0,
                                    0
                                ]
                            ],
                            "v": [
                                [
                                    743,
                                    332
                                ],
                                [
                                    200,
                                    435
                                ],
                                [
                                    198,
                                    343
                                ],
                                [
                                    743,
                                    234
                                ]
                            ],
                            "c": true
                        },
                        "ix": 1
                    },
                    "o": {
                        "a": 0,
                        "k": 100,
                        "ix": 3
                    },
                    "x": {
                        "a": 0,
                        "k": 0,
                        "ix": 4
                    },
                    "nm": "Mask 1"
                }
            ],
            "ip": 16,
            "op": 241,
            "st": 16,
            "bm": 0
        },
        {
            "ddd": 0,
            "ind": 3,
            "ty": 2,
            "nm": "retail",
            "refId": "image_0",
            "sr": 1,
            "ks": {
                "o": {
                    "a": 1,
                    "k": [
                        {
                            "i": {
                                "x": [
                                    0.667
                                ],
                                "y": [
                                    1
                                ]
                            },
                            "o": {
                                "x": [
                                    0.333
                                ],
                                "y": [
                                    0
                                ]
                            },
                            "t": 17,
                            "s": [
                                0
                            ]
                        },
                        {
                            "t": 26,
                            "s": [
                                100
                            ]
                        }
                    ],
                    "ix": 11
                },
                "r": {
                    "a": 0,
                    "k": 0,
                    "ix": 10
                },
                "p": {
                    "a": 1,
                    "k": [
                        {
                            "i": {
                                "x": 0.667,
                                "y": 1
                            },
                            "o": {
                                "x": 0.333,
                                "y": 0
                            },
                            "t": 17,
                            "s": [
                                429.5,
                                395.5,
                                0
                            ],
                            "to": [
                                18.833,
                                -4.333,
                                0
                            ],
                            "ti": [
                                -18.833,
                                4.333,
                                0
                            ]
                        },
                        {
                            "t": 26,
                            "s": [
                                542.5,
                                369.5,
                                0
                            ]
                        }
                    ],
                    "ix": 2
                },
                "a": {
                    "a": 0,
                    "k": [
                        363.5,
                        267.5,
                        0
                    ],
                    "ix": 1
                },
                "s": {
                    "a": 0,
                    "k": [
                        100,
                        100,
                        100
                    ],
                    "ix": 6
                }
            },
            "ao": 0,
            "hasMask": true,
            "masksProperties": [
                {
                    "inv": false,
                    "mode": "a",
                    "pt": {
                        "a": 0,
                        "k": {
                            "i": [
                                [
                                    0,
                                    0
                                ],
                                [
                                    0,
                                    0
                                ],
                                [
                                    0,
                                    0
                                ],
                                [
                                    0,
                                    0
                                ]
                            ],
                            "o": [
                                [
                                    0,
                                    0
                                ],
                                [
                                    0,
                                    0
                                ],
                                [
                                    0,
                                    0
                                ],
                                [
                                    0,
                                    0
                                ]
                            ],
                            "v": [
                                [
                                    529,
                                    192
                                ],
                                [
                                    200,
                                    254
                                ],
                                [
                                    198,
                                    343
                                ],
                                [
                                    529,
                                    275
                                ]
                            ],
                            "c": true
                        },
                        "ix": 1
                    },
                    "o": {
                        "a": 0,
                        "k": 100,
                        "ix": 3
                    },
                    "x": {
                        "a": 0,
                        "k": 0,
                        "ix": 4
                    },
                    "nm": "Mask 1"
                }
            ],
            "ip": 12,
            "op": 237,
            "st": 12,
            "bm": 0
        },
        {
            "ddd": 0,
            "ind": 4,
            "ty": 2,
            "nm": "heart",
            "refId": "image_0",
            "sr": 1,
            "ks": {
                "o": {
                    "a": 0,
                    "k": 100,
                    "ix": 11
                },
                "r": {
                    "a": 0,
                    "k": 0,
                    "ix": 10
                },
                "p": {
                    "a": 0,
                    "k": [
                        379,
                        263,
                        0
                    ],
                    "ix": 2
                },
                "a": {
                    "a": 0,
                    "k": [
                        200,
                        161,
                        0
                    ],
                    "ix": 1
                },
                "s": {
                    "a": 1,
                    "k": [
                        {
                            "i": {
                                "x": [
                                    0.667,
                                    0.667,
                                    0.667
                                ],
                                "y": [
                                    1,
                                    1,
                                    1
                                ]
                            },
                            "o": {
                                "x": [
                                    0.333,
                                    0.333,
                                    0.333
                                ],
                                "y": [
                                    0,
                                    0,
                                    0
                                ]
                            },
                            "t": 0,
                            "s": [
                                0,
                                0,
                                100
                            ]
                        },
                        {
                            "i": {
                                "x": [
                                    0.667,
                                    0.667,
                                    0.667
                                ],
                                "y": [
                                    1,
                                    1,
                                    1
                                ]
                            },
                            "o": {
                                "x": [
                                    0.333,
                                    0.333,
                                    0.333
                                ],
                                "y": [
                                    0,
                                    0,
                                    0
                                ]
                            },
                            "t": 7,
                            "s": [
                                164,
                                164,
                                100
                            ]
                        },
                        {
                            "i": {
                                "x": [
                                    0.653,
                                    0.653,
                                    0.653
                                ],
                                "y": [
                                    1,
                                    1,
                                    1
                                ]
                            },
                            "o": {
                                "x": [
                                    0.298,
                                    0.298,
                                    0.298
                                ],
                                "y": [
                                    0,
                                    0,
                                    0
                                ]
                            },
                            "t": 13,
                            "s": [
                                100,
                                100,
                                100
                            ]
                        },
                        {
                            "i": {
                                "x": [
                                    0.82,
                                    0.82,
                                    0.82
                                ],
                                "y": [
                                    1,
                                    1,
                                    1
                                ]
                            },
                            "o": {
                                "x": [
                                    0.418,
                                    0.418,
                                    0.418
                                ],
                                "y": [
                                    0,
                                    0,
                                    0
                                ]
                            },
                            "t": 19,
                            "s": [
                                164,
                                164,
                                100
                            ]
                        },
                        {
                            "t": 25,
                            "s": [
                                100,
                                100,
                                100
                            ]
                        }
                    ],
                    "ix": 6
                }
            },
            "ao": 0,
            "hasMask": true,
            "masksProperties": [
                {
                    "inv": false,
                    "mode": "a",
                    "pt": {
                        "a": 0,
                        "k": {
                            "i": [
                                [
                                    0,
                                    0
                                ],
                                [
                                    0,
                                    0
                                ],
                                [
                                    0,
                                    0
                                ],
                                [
                                    0,
                                    0
                                ]
                            ],
                            "o": [
                                [
                                    0,
                                    0
                                ],
                                [
                                    0,
                                    0
                                ],
                                [
                                    0,
                                    0
                                ],
                                [
                                    0,
                                    0
                                ]
                            ],
                            "v": [
                                [
                                    303,
                                    74
                                ],
                                [
                                    97,
                                    74
                                ],
                                [
                                    97,
                                    248
                                ],
                                [
                                    303,
                                    248
                                ]
                            ],
                            "c": true
                        },
                        "ix": 1
                    },
                    "o": {
                        "a": 0,
                        "k": 100,
                        "ix": 3
                    },
                    "x": {
                        "a": 0,
                        "k": 0,
                        "ix": 4
                    },
                    "nm": "Mask 1"
                }
            ],
            "ip": 0,
            "op": 225,
            "st": 0,
            "bm": 0
        }
    ],
    "markers": []
}
