<?xml version="1.0" encoding="utf-8"?>
<!-- Generator: Adobe Illustrator 25.2.3, SVG Export Plug-In . SVG Version: 6.00 Build 0)  -->
<svg version="1.1" id="Layer_1" xmlns="http://www.w3.org/2000/svg" xmlns:xlink="http://www.w3.org/1999/xlink" x="0px" y="0px"
	 viewBox="0 0 2880 1009.1" style="enable-background:new 0 0 2880 1009.1;" xml:space="preserve">
<style type="text/css">
	.st0{fill:url(#Path-2_1_);}
</style>
<g id="Layer_2_1_">
	<g id="Layer_1-2">
		<g id="Desktop">
			<g id="Home-Header">
				
					<linearGradient id="Path-2_1_" gradientUnits="userSpaceOnUse" x1="1419.681" y1="41.3555" x2="1420.431" y2="41.4855" gradientTransform="matrix(2824.22 -396.92 162.94 1159.39 -4015648.5 516058.6562)">
					<stop  offset="0.109" style="stop-color:#E7287E"/>
					<stop  offset="0.6012" style="stop-color:#A01286"/>
					<stop  offset="0.93" style="stop-color:#75008B"/>
				</linearGradient>
				<path id="Path-2" class="st0" d="M0,0h2880v382c-185.9,150.3-411.5,219.8-676.8,208.5c-472.3-31.6-429.6,323.4-905.5,409.3
					c-376.9,60.6-748-174.6-1113.1-705.5C143.4,234.5,81.9,136.4,0,0z"/>
			</g>
		</g>
	</g>
</g>
</svg>
