<?xml version="1.0" encoding="utf-8"?>
<!-- Generator: Adobe Illustrator 24.2.1, SVG Export Plug-In . SVG Version: 6.00 Build 0)  -->
<svg version="1.1" id="Layer_1" xmlns="http://www.w3.org/2000/svg" xmlns:xlink="http://www.w3.org/1999/xlink" x="0px" y="0px"
	 viewBox="0 0 2883.7 806.6" style="enable-background:new 0 0 2883.7 806.6;" xml:space="preserve">
<style type="text/css">
	.st0{fill:url(#path-2_2_);}
</style>
<linearGradient id="path-2_2_" gradientUnits="userSpaceOnUse" x1="2284.8098" y1="0.5097" x2="2285.1326" y2="1.1422" gradientTransform="matrix(-771.2451 -1653.9406 -2365.6143 1103.104 1765761.875 3778668.75)">
	<stop  offset="2.903294e-04" style="stop-color:#FFCF03"/>
	<stop  offset="0.4156" style="stop-color:#EB7604"/>
	<stop  offset="1" style="stop-color:#E2294C"/>
</linearGradient>
<path id="path-2_1_" class="st0" d="M2042.3,719.1c-203.5-109.1-301.1-101.7-592.6-63.2c-357.3,47.2-570.4,105.8-813.4,37.9
	C421.9,634,209.8,402.7,0,0c1920,0,2880,0,2880,0s8.4,621.8,0,622.7C2887.1,712.2,2396.7,926.3,2042.3,719.1z"/>
</svg>
