<?xml version="1.0" encoding="UTF-8"?>
<svg width="753px" height="773px" viewBox="0 0 753 773" version="1.1" xmlns="http://www.w3.org/2000/svg" xmlns:xlink="http://www.w3.org/1999/xlink">
    <title>shape-diagonal-1</title>
    <defs>
        <linearGradient x1="95.2852725%" y1="99.6810863%" x2="0%" y2="0.318913737%" id="linearGradient-1">
            <stop stop-color="#E2294C" offset="0%"></stop>
            <stop stop-color="#EB7604" offset="49.3475244%"></stop>
            <stop stop-color="#FFCF03" offset="99.9709671%"></stop>
        </linearGradient>
        <linearGradient x1="84.0603253%" y1="100%" x2="12.3935958%" y2="0%" id="linearGradient-2">
            <stop stop-color="#E2294C" offset="0%"></stop>
            <stop stop-color="#EB7604" offset="49.3475244%"></stop>
            <stop stop-color="#FFCF03" offset="99.9709671%"></stop>
        </linearGradient>
    </defs>
    <g id="Page-1" stroke="none" stroke-width="1" fill="none" fill-rule="evenodd" opacity="0.750139509">
        <g id="Artboard" transform="translate(-96.000000, -82.000000)" fill-rule="nonzero">
            <g id="shape-diagonal-1" transform="translate(96.000000, 82.000000)">
                <path d="M456.8,0.7 C315.4,5.3 150.9,87.9 177.9,176.4 C204.9,264.9 268.9,262.9 300.8,290.9 C332.7,318.9 367,377.3 378,513.6 C389,649.9 576.2,534.4 664.6,446.3 C752.9,358.2 772,239.4 734.2,158.4 C696.4,77.3 598.3,-3.9 456.8,0.7 Z" id="Path" fill="url(#linearGradient-1)"></path>
                <path d="M350.5,251.6 C228.1,180.5 44.8,163.5 20.9,252.8 C-3,342.1 52.2,374.4 64.4,415 C76.6,455.6 -35,533.5 11.9,644.8 C58.8,756.1 199,793.8 305.5,761.1 C412,728.4 491.2,621.1 502.1,532.3 C513,443.5 472.8,322.7 350.5,251.6 Z" id="Path" fill="url(#linearGradient-2)"></path>
            </g>
        </g>
    </g>
</svg>