<?xml version="1.0" encoding="utf-8"?>
<!-- Generator: Adobe Illustrator 25.2.3, SVG Export Plug-In . SVG Version: 6.00 Build 0)  -->
<svg version="1.1" id="Layer_1" xmlns="http://www.w3.org/2000/svg" xmlns:xlink="http://www.w3.org/1999/xlink" x="0px" y="0px"
	 viewBox="0 0 694.8 744.7" style="enable-background:new 0 0 694.8 744.7;" xml:space="preserve">
<style type="text/css">
	.st0{opacity:0.65;fill:url(#Path_1_);}
	.st1{fill:url(#Path-2_1_);}
</style>
<g id="Layer_2_1_">
	<g id="Layer_1-2">
		<g id="shape-corner">
			
				<linearGradient id="Path_1_" gradientUnits="userSpaceOnUse" x1="-763.1981" y1="41.0729" x2="-761.9281" y2="40.3229" gradientTransform="matrix(686.77 0 0 691.45 523909.2188 -27757.4863)">
				<stop  offset="0.109" style="stop-color:#E7287E"/>
				<stop  offset="0.6012" style="stop-color:#A01286"/>
				<stop  offset="0.93" style="stop-color:#75008B"/>
			</linearGradient>
			<path id="Path" class="st0" d="M47.8,2.5c-22.7,7.1-26.5,31-32.6,52.2C-0.8,111-3,170.7,3.1,228.6c7.9,75.6,29.3,149,50.5,222
				c22,75.5,48,156.8,112.1,202.5c65.7,46.8,154.3,43.5,233.5,28.2c66.8-12.9,132-32.9,194.6-59.6c31.9-13.6,64.7-30.4,82.6-60.1
				s13-75.4-18.1-90.5c-18.4-9-41.9-5.9-58.1-18.3c-22.5-17.2-17.7-51.5-24.2-79.1c-10.5-44.9-56.9-75.7-103-76.8
				s-90.1,22.8-122.1,56c-19.5,20.1-37.6,45-64.9,51.1c-28.6,6.3-58.1-11.5-74.4-35.8s-22.4-53.8-28.1-82.5
				c-11.8-59.2-23.6-118.4-35.3-177.5c-5.8-29-12.1-59.4-31-82.3c-14.8-18-39.3-29.2-62.6-25C52.3,1.3,50.1,1.8,47.8,2.5"/>
			
				<linearGradient id="Path-2_1_" gradientUnits="userSpaceOnUse" x1="-762.2283" y1="40.3618" x2="-762.6583" y2="41.0918" gradientTransform="matrix(686.77 0 0 691.45 523917.25 -27704.1738)">
				<stop  offset="0.109" style="stop-color:#E7287E"/>
				<stop  offset="0.6012" style="stop-color:#A01286"/>
				<stop  offset="0.93" style="stop-color:#75008B"/>
			</linearGradient>
			<path id="Path-2" class="st1" d="M55.9,55.8c-22.7,7.1-26.5,31-32.6,52.2c-16,56.3-18.2,116-12.1,173.9
				c7.9,75.6,29.3,149,50.5,222c22,75.5,48,156.8,112.1,202.5c65.7,46.8,154.3,43.5,233.5,28.2c66.8-12.9,132-32.9,194.6-59.6
				c31.9-13.6,64.7-30.4,82.6-60.1s13-75.4-18.1-90.5c-18.4-9-41.9-5.9-58.1-18.3c-22.5-17.2-17.7-51.5-24.2-79.1
				c-10.5-44.9-56.9-75.7-103-76.8S391,373,359,406.2c-19.5,20.1-37.6,45-64.9,51.1c-28.6,6.3-58.1-11.5-74.4-35.8
				s-22.4-53.8-28.1-82.5c-11.8-59.2-23.6-118.4-35.3-177.5c-5.8-29-12.1-59.4-31-82.3c-14.8-18-39.3-29.2-62.6-25
				C60.4,54.6,58.1,55.1,55.9,55.8"/>
		</g>
	</g>
</g>
</svg>
